"name","abbrv","formula","state","ref1","ref2","date","G","H","S","Cp","V","a1.a","a2.b","a3.c","a4.d","c1.e","c2.f","omega.lambda","Gh"
"Bison OF1","NA","C\textsubscript{19.8}H\textsubscript{39.5}N\textsubscript{1.11e-2}O\textsubscript{1.26}","aq","thermofunc","NA",2020-11-25,-20.31,-690.6,576.6,1670,317.3,260,200,380,-140,1600,17,-0.79,-4.8284276380382
"Bison OF2","NA","C\textsubscript{19.4}H\textsubscript{38.6}N\textsubscript{1.64e-2}O\textsubscript{1.40}","aq","thermofunc","NA",2020-11-25,-55.82,-706.6,596.1,1640,311.1,260,190,370,-140,1600,17,-0.77,-5.34921579920248
"Bison OF3","NA","C\textsubscript{18.0}H\textsubscript{35.6}N\textsubscript{2.37e-2}O\textsubscript{1.70}","aq","thermofunc","NA",2020-11-25,-146.4,-743.4,603.4,1510,290.6,240,180,340,-130,1500,16,-0.72,-6.62148721198113
"Bison OF4","NA","C\textsubscript{17.3}H\textsubscript{34.8}N\textsubscript{1.51e-2}O\textsubscript{1.53}","aq","thermofunc","NA",2020-11-25,-112.7,-693.7,582.8,1460,280.2,230,170,330,-120,1400,15,-0.7,-7.40134254461414
"Bison OF5","NA","C\textsubscript{16.9}H\textsubscript{33.1}N\textsubscript{2.83e-3}O\textsubscript{1.79}","aq","thermofunc","NA",2020-11-25,-167.4,-719.5,592.1,1410,272,230,170,320,-120,1400,15,-0.7,-7.4282457211331
"Bison OF6","NA","C\textsubscript{16.7}H\textsubscript{31.8}N\textsubscript{3.36e-3}O\textsubscript{1.95}","aq","thermofunc","NA",2020-11-25,-180.5,-709.2,600.7,1380,265.1,222,159,302,-113,1350,12.8,-0.607,-10.140070191172
"Mound OF1","NA","C\textsubscript{20.0}H\textsubscript{39.8}N\textsubscript{4.78e-5}O","aq","thermofunc","NA",2020-11-25,36.47,-654.9,498.9,1670,318.9,260,200,390,-140,1600,18,-0.81,-4.20927270470549
"Mound OF2","NA","C\textsubscript{19.6}H\textsubscript{39.3}N\textsubscript{4.74e-2}O\textsubscript{1.12}","aq","thermofunc","NA",2020-11-25,0.2801,-669,555,1660,314.6,260,200,380,-140,1600,18,-0.81,-4.04849333061324
"Mound OF3","NA","C\textsubscript{18.0}H\textsubscript{36.3}N\textsubscript{1.55e-2}O\textsubscript{1.30}","aq","thermofunc","NA",2020-11-25,-46.81,-655.8,567.3,1520,289.7,240,180,340,-130,1500,16,-0.72,-6.70023717871111
"Mound OF4","NA","C\textsubscript{17.4}H\textsubscript{34.3}N\textsubscript{5.10e-3}O\textsubscript{1.77}","aq","thermofunc","NA",2020-11-25,-160.5,-735,596.4,1460,280.7,230,170,330,-120,1400,15,-0.69,-7.48066523523145
"Mound OF5","NA","C\textsubscript{16.8}H\textsubscript{31.7}N\textsubscript{3.52e-3}O\textsubscript{1.93}","aq","thermofunc","NA",2020-11-25,-161.7,-687.5,602.4,1380,264.7,222,158,300,-112,1350,12.5,-0.595,-10.533752770025
"Empress OF1","NA","C\textsubscript{19.8}H\textsubscript{39.8}N\textsubscript{1.11e-3}O\textsubscript{1.01}","aq","thermofunc","NA",2020-11-25,26.48,-661.2,511.5,1670,317.9,260,200,390,-140,1600,18,-0.81,-4.05220760948656
"Empress OF2","NA","C\textsubscript{18.9}H\textsubscript{37.9}N\textsubscript{3.15e-2}O\textsubscript{1.20}","aq","thermofunc","NA",2020-11-25,-21.46,-664.6,553.8,1590,303.2,250,190,360,-130,1500,17,-0.76,-5.48376803705945
"Empress OF3","NA","C\textsubscript{19.1}H\textsubscript{37.9}N\textsubscript{1.07e-2}O\textsubscript{1.27}","aq","thermofunc","NA",2020-11-25,-36.73,-687.6,534.3,1600,306.5,250,190,370,-140,1600,17,-0.78,-4.98847937337763
"Empress OF4","NA","C\textsubscript{17.8}H\textsubscript{35.0}N\textsubscript{5.91e-3}O\textsubscript{1.63}","aq","thermofunc","NA",2020-11-25,-124,-712.4,583.5,1490,285.6,240,180,340,-120,1400,16,-0.73,-6.55669543974291
"Empress OF5","NA","C\textsubscript{17.1}H\textsubscript{33.0}N\textsubscript{7.42e-4}O\textsubscript{1.76}","aq","thermofunc","NA",2020-11-25,-140.2,-690.2,590.5,1420,272,230,170,320,-120,1400,15,-0.68,-7.88546003269279
"Octopus OF1","NA","C\textsubscript{20.4}H\textsubscript{41.3}N\textsubscript{3.24e-3}O\textsubscript{1.25}","aq","thermofunc","NA",2020-11-25,-23.32,-722.8,598,1750,329.7,270,210,410,-150,1700,18,-0.83,-3.49875291917002
"Octopus OF2","NA","C\textsubscript{17.5}H\textsubscript{35.3}N\textsubscript{8.71e-3}O\textsubscript{1.55}","aq","thermofunc","NA",2020-11-25,-116,-704.6,592.6,1480,283.7,240,170,330,-120,1400,15,-0.71,-7.06567353028725
